<svg width="20" height="20" viewBox="0 0 20 20" fill="none" xmlns="http://www.w3.org/2000/svg">
<path d="M20 10C20 4.48 15.52 0 10 0C4.48 0 0 4.48 0 10C0 15.52 4.48 20 10 20C15.52 20 20 15.52 20 10ZM13 4.5L16.5 8L13 11.5V9H9V7H13V4.5ZM7 15.5L3.5 12L7 8.5V11H11V13H7V15.5Z" fill="white"/>
</svg>
