<svg width="116" height="77" viewBox="0 0 116 77" fill="none" xmlns="http://www.w3.org/2000/svg">
<path d="M37.4448 22.1842C38.0463 19.7905 43.7313 16.2945 46.7692 18.4022C47.7017 13.842 48.5739 10.9982 51.6204 8.75166C54.667 6.50522 59.7502 9.44163 60.5666 15.5921C61.3831 13.0638 65.5339 9.65621 68.8683 12.5294C71.9536 15.1882 72.263 19.6433 71.9407 22.18H37.4448V22.1842Z" fill="url(#paint0_linear_531_35041)"/>
<path d="M45.9905 25.4257C45.5021 23.5108 40.8873 20.7141 38.4212 22.4002C37.6643 18.7519 36.9563 16.477 34.4832 14.6797C32.0101 12.8826 27.8837 15.2316 27.221 20.152C26.5583 18.1293 23.1886 15.4033 20.4819 17.702C17.9774 19.829 17.7263 23.393 17.9879 25.4224H45.9905V25.4257Z" fill="url(#paint1_linear_531_35041)"/>
<path d="M102.569 22.184C102.081 20.2007 97.466 17.3041 94.9999 19.0504C94.2429 15.2719 93.5348 12.9155 91.0617 11.0542C88.5887 9.19285 84.4624 11.6259 83.7996 16.7219C83.1368 14.6271 79.7673 11.8036 77.0605 14.1844C74.5561 16.3873 74.3049 20.0787 74.5665 22.1806H102.569V22.184Z" fill="url(#paint2_linear_531_35041)"/>
<path d="M43.9569 27.9629L42.5576 58.7629H17.0938L19.7269 46.2623L28.2131 43.6066C28.433 43.5299 28.6332 43.4062 28.7996 43.2444C28.966 43.0825 29.0945 42.8864 29.1761 42.67L34.2502 29.7499L43.9569 27.9629Z" fill="#2D4587"/>
<path d="M41.1063 31.2051L40.4693 42.348L31.2558 43.204L35.2248 31.6124L41.1063 31.2051ZM18.5041 46.3376L20.5808 46.0118L19.3706 50.2524L18.3014 50.1394C18.1872 50.1272 18.0823 50.0715 18.0088 49.9841C17.9353 49.8966 17.8989 49.7842 17.9075 49.6706L18.1338 46.7349C18.1414 46.637 18.1822 46.5445 18.2494 46.4724C18.3166 46.4003 18.4063 46.3528 18.5041 46.3376Z" fill="white"/>
<path d="M30.304 40.2266C30.806 40.626 30.3532 44.2333 29.9938 44.173C29.636 44.1128 28.8696 43.9749 28.5593 43.7467C28.249 43.5185 26.5059 40.5991 26.9298 39.9936C27.3537 39.3881 29.9157 39.9158 30.304 40.2266Z" fill="#2D4587"/>
<path opacity="0.1" d="M30.304 40.2266C30.806 40.626 30.3532 44.2333 29.9938 44.173C29.636 44.1128 28.8696 43.9749 28.5593 43.7467C28.249 43.5185 26.5059 40.5991 26.9298 39.9936C27.3537 39.3881 29.9157 39.9158 30.304 40.2266Z" fill="#2D4587"/>
<path d="M43.144 58.7632H94.8353L91.7628 21.0737H45.0313L43.144 58.7632Z" fill="url(#paint3_linear_531_35041)"/>
<path d="M95.2434 60.3837H15.875V57.9521H95.2434V60.3837Z" fill="url(#paint4_linear_531_35041)"/>
<path d="M22.1506 60.3847V57.2096L14.4019 56.7373L13.8398 60.3847H22.1506ZM96.6935 56.7798L91.8586 57.2754V60.3847H97.2785L96.6935 56.7798Z" fill="#FF304F"/>
<path d="M74.0776 60.7897C74.0776 60.7897 74.8315 55.5212 80.3542 55.5212C85.877 55.5212 86.6952 60.7897 86.6952 60.7897" stroke="#FF304F" stroke-width="6.48" stroke-miterlimit="10"/>
<path d="M80.3866 55.5212C88.2489 55.5212 88.2624 67.6791 80.3866 67.6791C72.5244 67.6791 72.5109 55.5212 80.3866 55.5212Z" fill="#273C74"/>
<path d="M80.3842 58.7627C83.908 58.7627 83.9146 64.4364 80.3842 64.4364C76.8588 64.4364 76.8539 58.7627 80.3842 58.7627Z" fill="#EEF5F8"/>
<path d="M28.082 60.7899C28.082 60.7899 28.8116 55.5215 34.1561 55.5215C39.5007 55.5215 40.2926 60.7899 40.2926 60.7899" stroke="#FF304F" stroke-width="7.48" stroke-miterlimit="10"/>
<path d="M33.9838 55.5215C41.8461 55.5215 41.8595 67.6794 33.9838 67.6794C26.1215 67.6794 26.108 55.5215 33.9838 55.5215Z" fill="#273C74"/>
<path d="M33.9867 58.7632C37.5105 58.7632 37.5172 64.4369 33.9867 64.4369C30.4613 64.4369 30.4564 58.7632 33.9867 58.7632Z" fill="#EEF5F8"/>
<path d="M4.71588 54.2825C6.28897 55.2038 8.5459 54.3521 8.5459 54.3521C8.5459 54.3521 8.25077 52.0071 6.67669 51.0868C5.1036 50.1655 2.84766 51.0161 2.84766 51.0161C2.84766 51.0161 3.14279 53.3612 4.71588 54.2825Z" fill="url(#paint5_linear_531_35041)"/>
<path d="M103.274 32.2613C100.652 33.1636 99.4654 36.6101 99.4654 36.6101C99.4654 36.6101 102.529 38.5915 105.15 37.687C107.772 36.7847 108.959 33.3404 108.959 33.3404C108.959 33.3404 105.895 31.359 103.274 32.2613Z" fill="url(#paint6_linear_531_35041)"/>
<path d="M16 68C15.4477 68 15 67.5523 15 67C15 66.4477 15.4477 66 16 66C16.5523 66 17 66.4477 17 67C17 67.5523 16.5523 68 16 68Z" fill="#FF304F"/>
<path opacity="0.45" d="M100.737 65.6525C100.175 65.6525 99.7198 65.1989 99.7198 64.6394C99.7198 64.0798 100.175 63.6262 100.737 63.6262C101.299 63.6262 101.755 64.0798 101.755 64.6394C101.755 65.1989 101.299 65.6525 100.737 65.6525Z" fill="#FF304F"/>
<path opacity="0.45" d="M9.48828 69.8682C8.65985 69.8682 7.98828 69.1966 7.98828 68.3682C7.98828 67.5397 8.65985 66.8682 9.48828 66.8682C10.3167 66.8682 10.9883 67.5397 10.9883 68.3682C10.9883 69.1966 10.3167 69.8682 9.48828 69.8682Z" fill="#FF304F"/>
<path opacity="0.45" d="M104.4 48.2265C103.388 48.2265 102.568 47.41 102.568 46.4028C102.568 45.3956 103.388 44.5791 104.4 44.5791C105.411 44.5791 106.231 45.3956 106.231 46.4028C106.231 47.41 105.411 48.2265 104.4 48.2265Z" fill="#FF304F"/>
<path d="M67.3598 68.0839C66.3483 68.0839 65.5282 67.2674 65.5282 66.2602C65.5282 65.253 66.3483 64.4365 67.3598 64.4365C68.3714 64.4365 69.1914 65.253 69.1914 66.2602C69.1914 67.2674 68.3714 68.0839 67.3598 68.0839Z" fill="#FF304F"/>
<path d="M15.125 43.2082C15.2741 43.7617 14.9439 44.3306 14.3874 44.4789C13.8309 44.6271 13.2589 44.2987 13.1098 43.7453C12.9607 43.1918 13.291 42.6229 13.8474 42.4747C14.4039 42.3264 14.9759 42.6548 15.125 43.2082Z" fill="#FF304F"/>
<path d="M46.168 11.9695C46.3171 12.5229 45.9869 13.0918 45.4304 13.2401C44.8739 13.3884 44.3019 13.0599 44.1528 12.5065C44.0037 11.9531 44.3339 11.3842 44.8904 11.2359C45.4469 11.0876 46.0189 11.416 46.168 11.9695Z" fill="#FF304F"/>
<path d="M11.9856 31.2051H12.0002C12.0867 32.4719 12.9979 32.4914 12.9979 32.4914C12.9979 32.4914 11.9931 32.5117 11.9931 33.9754C11.9931 32.5117 10.9883 32.4914 10.9883 32.4914C10.9883 32.4914 11.8991 32.4719 11.9856 31.2051ZM16.9357 72.6166H16.9498C17.0328 73.8797 17.9076 73.8991 17.9076 73.8991C17.9076 73.8991 16.9429 73.9193 16.9429 75.3788C16.9429 73.9193 15.9782 73.8991 15.9782 73.8991C15.9782 73.8991 16.8527 73.8797 16.9357 72.6166Z" fill="#FF304F"/>
<path d="M91.3567 6.0791H91.3713C91.4578 7.35755 92.369 7.37722 92.369 7.37722C92.369 7.37722 91.3642 7.3977 91.3642 8.87487C91.3642 7.3977 90.3594 7.37722 90.3594 7.37722C90.3594 7.37722 91.2702 7.35755 91.3567 6.0791ZM96.3068 47.8705H96.3209C96.4039 49.1453 97.2787 49.1648 97.2787 49.1648C97.2787 49.1648 96.314 49.1852 96.314 50.6581C96.314 49.1852 95.3493 49.1648 95.3493 49.1648C95.3493 49.1648 96.2238 49.1453 96.3068 47.8705Z" fill="#FF304F"/>
<defs>
<linearGradient id="paint0_linear_531_35041" x1="54.0054" y1="30.1366" x2="54.1847" y2="-7.4342" gradientUnits="userSpaceOnUse">
<stop stop-color="#118DF0" stop-opacity="0"/>
<stop offset="1" stop-color="#118DF0"/>
</linearGradient>
<linearGradient id="paint1_linear_531_35041" x1="32.5472" y1="31.7878" x2="32.4057" y2="1.731" gradientUnits="userSpaceOnUse">
<stop stop-color="white" stop-opacity="0"/>
<stop offset="1" stop-color="#118DF0"/>
</linearGradient>
<linearGradient id="paint2_linear_531_35041" x1="89.1258" y1="28.7732" x2="88.9741" y2="-2.35676" gradientUnits="userSpaceOnUse">
<stop stop-color="#118DF0" stop-opacity="0"/>
<stop offset="0.6875" stop-color="#118DF0"/>
</linearGradient>
<linearGradient id="paint3_linear_531_35041" x1="45.5" y1="37" x2="95" y2="40" gradientUnits="userSpaceOnUse">
<stop stop-color="#2D4587"/>
<stop offset="1" stop-color="#FF304F"/>
</linearGradient>
<linearGradient id="paint4_linear_531_35041" x1="53.8669" y1="61.7469" x2="53.8692" y2="55.3061" gradientUnits="userSpaceOnUse">
<stop stop-color="white"/>
<stop offset="1" stop-color="#EEEEEE"/>
</linearGradient>
<linearGradient id="paint5_linear_531_35041" x1="10.8034" y1="57.2481" x2="-1.58308" y2="45.4705" gradientUnits="userSpaceOnUse">
<stop stop-color="#118DF0"/>
<stop offset="1" stop-color="#FF304F"/>
</linearGradient>
<linearGradient id="paint6_linear_531_35041" x1="93.8401" y1="36.3467" x2="119.762" y2="33.1273" gradientUnits="userSpaceOnUse">
<stop stop-color="#118DF0"/>
<stop offset="1" stop-color="#FF304F"/>
</linearGradient>
</defs>
</svg>
