<svg width="16" height="20" viewBox="0 0 16 20" fill="none" xmlns="http://www.w3.org/2000/svg">
<path d="M16 4H12C12 1.79 10.21 0 8 0C5.79 0 4 1.79 4 4H0V20H16V4ZM6 9H4V6H6V9ZM8 2C9.1 2 10 2.9 10 4H6C6 2.9 6.9 2 8 2ZM12 9H10V6H12V9Z" fill="#118DF0"/>
</svg>
